{
    "GUIDED": {
        "LANG": "Tutorial language",
        "HEADER": {
            "LANG": {
                "TITLE": "Languages",
                "CONTENT": "Change the site language at any time"
            },
            "THEME": {
                "TITLE": "Theming",
                "CONTENT": "Change the theme as you wish (we do not sell cookies)"
            },
            "LOGO": {
                "TITLE": "Home",
                "CONTENT": "Access the home page at any time by clicking on the site logo"
            }
        },
        "HOME": {
            "TOP_LAST": {
                "TITLE": "Last 5 monsters",
                "CONTENT": "Find the last 5 monsters added by the community here, this list is updated every 6:00"
            },
            "TOP_BEST": {
                "TITLE": "Best 5 monsters",
                "CONTENT": "Find the 5 highest rated monsters, this list is updated every 1 hour"
            },
            "SEARCH-CREATE": {
                "TITLE": "Create a monster",
                "CONTENT": "If you can't find the monster by name, you can suggest that the moderators add it"
            }
        },
        "MONSTER_CREATION": {
            "LOGO": {
                "TITLE": "Logo",
                "CONTENT": "Get the unawakened monster logo in 110px by 110px on a transparent background following the instructions, then place it here."
            },
            "NAME": {
                "TITLE": "Name",
                "CONTENT": "Enter the name of the monster once awakened."
            },
            "FAMILLY": {
                "TITLE": "Family",
                "CONTENT": "Enter the exact family of the monster (ex: Laika = Dragon Knight)."
            },
            "RATING": {
                "TITLE": "Natural grade",
                "CONTENT": "Indicate the natural grade of the monster you are going to capture."
            },
            "ATTRIBUTE": {
                "TITLE": "Attribute",
                "CONTENT": "Set the monster element."
            },
            "TYPE": {
                "TITLE": "Type",
                "CONTENT": "Select the monster's class."
            },
            "ARTEFACT1": {
                "TITLE": "Main artifact",
                "CONTENT": "Choose the best artifact for this monster."
            },
            "ARTEFACT2": {
                "TITLE": "Second artifact",
                "CONTENT": "Define the second choice artifact that will be suitable but will not outperform the previous one."
            },
            "ARTEFACT3": {
                "TITLE": "Last artifact",
                "CONTENT": "As a last resort, select the default artifact."
            },
            "SAVE": {
                "TITLE": "Save",
                "CONTENT": "Remember to save once the monster is created! Otherwise progress will be lost."
            }
        },
        "MONSTER_VIEW": {
            "LOGO": {
                "TITLE": "Logo",
                "CONTENT": "Unawakened monster logo."
            },
            "NAME": {
                "TITLE": "Name",
                "CONTENT": "Name of the monster once awakened."
            },
            "FAMILLY": {
                "TITLE": "Family",
                "CONTENT": "The monster's family."
            },
            "RATING": {
                "TITLE": "Natural grade",
                "CONTENT": "Natural grade at which you will find this monster."
            },
            "ATTRIBUTE": {
                "TITLE": "Attribute",
                "CONTENT": "Represents the monster element."
            },
            "TYPE": {
                "TITLE": "Class",
                "CONTENT": "Class of the monster allowing you to define how it will act in combat."
            },
            "ARTEFACT1": {
                "TITLE": "Main artifact",
                "CONTENT": "Best artifact for this monster."
            },
            "ARTEFACT2": {
                "TITLE": "Second artifact",
                "CONTENT": "Second-rate artifact."
            },
            "ARTEFACT3": {
                "TITLE": "Last artifact",
                "CONTENT": "Last resort, default artifact."
            },
            "STATS": {
                "TITLE": "Basic statistic",
                "CONTENT": "Represents the monster's base stats (without any bonuses)."
            },
            "RUNES": {
                "TITLE": "Rune Builds",
                "CONTENT": "Find in this tab the builds proposed by the community, you can also like them, share them, or create new ones."
            },
            "RANKING": {
                "TITLE": "Monster Ranking",
                "CONTENT": "Vote for the effectiveness of the monster in the different content available in the game, the score goes from 1 to 10. Please note, you cannot go back once our vote has been given."
            }
        },
        "MONSTER_RUNES": {
            "RUNE2": {
                "TITLE": "Rune selection",
                "CONTENT": "Select the rune set of each rune, as well as the main statistics of runes 2 / 4 / 6, by clicking on their locations."
            },
            "SUBSTATS": {
                "TITLE": "Define substatistics",
                "CONTENT": "Select the sub-properties of your runes, this will allow other users to know which sub-property to turn to."
            },
            "NOTES": {
                "TITLE": "Indicate a note",
                "CONTENT": "Detail your build in a few brief explanations."
            },
            "SAVE": {
                "TITLE": "Save",
                "CONTENT": "Remember to save once the rune build is created! Otherwise progress will be lost."
            }
        }
    }
}