{
    "HOME": {
        "TITLE": "Home",
        "SUBTITLE": "Welcome to swc-database, this site, developed by fans, aims to offer you a space to share information concerning monsters from the game Summoner War Chronicles. DISCLAIMER: We don't have any link with Com2Us.",
        "LAST_TOP": "5 last added monsters",
        "BEST_TOP": "5 best rated monsters",
        "SEARCH": "Search a monster",
        "TABLE": {
            "NODATA": "Any data",
            "CREATE": "Add new monster",
            "COLUMNS": {
                "NAME": "Name",
                "FAMILLY": "Familly",
                "TYPE": "Type",
                "ATTRIBUTE": "Attribute",
                "GRADE": "Grade",
                "STATE": "State"
            },
            "TOOLTIP": {
                "CHECKED": "Checked",
                "CLOSED": "Closed",
                "GAVEL": "Check"
            }
        }
    }
}